<<<<<<< HEAD
git init

git add .
 
git commit -m "terserahhhh"
=======

untuk upload/push
----------


git init

git add .

git commit -m "terserahhh"
>>>>>>> 4dbe8c6a1b6891a5d01c5110997602c96930b6a9

git push origin main






<<<<<<< HEAD



git clone (alamat)
=======
----

untuk ambil


git clone (alamat)
>>>>>>> 4dbe8c6a1b6891a5d01c5110997602c96930b6a9
